<svg xmlns="http://www.w3.org/2000/svg" xmlns:xlink="http://www.w3.org/1999/xlink" width="281" height="236">
  <defs>
    <linearGradient id="a" x1="50%" x2="50%" y1="99.99%" y2="0%">
      <stop offset="0%" stop-color="gray" stop-opacity=".25" />
      <stop offset="54%" stop-color="gray" stop-opacity=".12" />
      <stop offset="100%" stop-color="gray" stop-opacity=".1" />
    </linearGradient>
    <path id="b" d="M7.34 15.18s15.74 4.73 37.79-2.37c22.04-7.1 67.7 10.26 67.7 10.26s36.22 0 89.76-22.89c0 0-24.4 23.68-7.08 37.88 17.32 14.21 1.57 34.73-18.9 42.62-20.47 7.9-22.04 23.68-20.47 38.67 1.57 15 0 .8 0 .8s-61.41-11.05-77.16 26.83L1.04 23.86s-4.73-9.47 6.3-8.68z" />
  </defs>
  <g fill="none" fill-rule="evenodd" transform="matrix(-1 0 0 1 281 0)">
    <path fill="url(#a)" fill-rule="nonzero" d="M273.4 71.87c-.84-.67-1.61-1.4-2.32-2.2v.57c-5.65-5.74-5.46-12.69-3.14-19.03l.76-.28c3.64-9.56 11.96-17.58 11.96-17.58l-1.24.52.6-.61c-51.63 21.91-87.55 23.19-91.56 23.26-2.47-.92-22.82-8.3-42.5-11.05-6.2-.89-12.35-1.34-17.87-1l-6.2-26.49-.12.07c-.29-2.27-1.36-7.21-5.29-10.28-5.24-4.08-1.34 14.67-1.34 14.67l.43-.2 2.2 23.6-1.07.88A81.88 81.88 0 0197.63 50c1.19-1.1 2.17-2.4 2.9-3.84a2.59 2.59 0 002.84-1.4c.3-.47.52-.96.69-1.47 1.29-3.44 2.7-6.9 3.11-10.54.42-3.65-.27-7.6-2.73-10.34-2.47-2.73-6.97-3.77-9.99-1.66-.78.55-1.44 1.27-2.3 1.69-2.62 1.26-5.52-.79-7.95-2.37-2.83-1.83-6.57-3.15-9.5-1.48a5.8 5.8 0 00-2.18 2.22 7.04 7.04 0 00-1.08 4.26 9.9 9.9 0 003.21 6.3 5.5 5.5 0 002.1 1.37c.21.06.42.1.63.13a13.29 13.29 0 00-1.95 10.05l-1.08 6.54c-.97.44-1.5 1.43-1.8 2.39-4.54.13-9.19 3.22-9.19 3.22L45.53 72.81c-4.63 3.12-1.49 8.87-1.49 8.87l10.4 31.06.58-.42c2.13 3.86 8.4 14.54 9.6 9.22 1.47-6.45-3.1-12.3-3.1-12.3h-.06l-1.19-1.52-4.35-23.1 5.5-5.44 7.4-1.07.34 47.8c-13.55 35.5-11.9 51.77-11.9 51.77l11.9 44.37 1.51-.25.37 1.46.14-.04.66 3.27h-1.2l-1.48 4.44s-7.6-.16-7.43 1.48c.16 1.64 4.3 4.44 14.86 1.48l2.98-2.96s1.48-1.48-1.49-4.44h-.21l-.82-5.74 1.03-.18-8.92-44.38c7.43-6.08 20.8-29.57 20.8-29.57s13.38 23.5 20.81 29.57l-8.91 44.37 1.03.18-.8 5.74h-.22c-2.97 2.96-1.49 4.44-1.49 4.44l2.98 2.96c10.57 2.96 14.7.16 14.86-1.48.17-1.65-7.43-1.48-7.43-1.48l-1.49-4.44h-1.18l.85-4.26.15-.45 1.67.27 11.9-44.37s-.23-25.64-11.78-57.68l23.72 33.1 18.77 29.44c1-2.38 2.22-4.66 3.65-6.8l13.58-12.63c15.79-9.34 36.86-9.9 49.87-9.13l12 1.29 5.65-29.58c3.28-4.21 8.16-7.85 15.26-10.56 14.72-5.64 27.06-17.6 26.96-29.22.22.23.42.47.62.71.16-5.14-2.09-10.25-7.6-14.74zm-162.92 43.88l-.02-.55.69 1.07-.67-.52z" />
    <path fill="#FDB797" fill-rule="nonzero" d="M63.8 108.62h-.05l-2.56-3.43-4.13 4.3.46.72-.52.13s8.34 16.77 9.72 10.4c1.4-6.36-2.92-12.12-2.92-12.12z" />
    <path fill="#538DC3" fill-rule="nonzero" d="M83.3 49.2s15.76 4.75 37.82-2.37c22.06-7.11 67.74 10.28 67.74 10.28s36.23 0 89.8-22.92c0 0-24.42 23.7-7.09 37.93 17.33 14.23 1.58 34.77-18.9 42.68-20.49 7.9-22.06 23.7-20.49 38.72 1.58 15.02 0 .8 0 .8s-61.44-11.07-77.2 26.87L77.02 57.9s-4.73-9.48 6.3-8.7z" />
    <g transform="translate(121 55.19)">
      <mask id="c" fill="#fff">
        <use xlink:href="#b" />
      </mask>
      <g fill="#000" fill-rule="nonzero" mask="url(#c)" opacity=".1">
        <path d="M-77.38-30.53l196.04 141.27 11.8-34.72zM-65.57 13.67L43.08 124.16l15.74-11.84z" />
      </g>
    </g>
    <g fill="#000" fill-rule="nonzero" opacity=".1">
      <path d="M87.33 60.13s15.74 4.67 37.79-2.33c22.05-7 67.7 10.11 67.7 10.11s29.3 0 74.15-16.41c3.54-9.27 11.67-17.04 11.67-17.04-53.55 22.56-89.76 22.56-89.76 22.56s-45.66-17.12-67.7-10.11c-22.05 7-37.8 2.33-37.8 2.33-11.02-.78-6.3 8.56-6.3 8.56l3.24 5.05c.68-1.7 2.56-3.03 7-2.72zM271.56 71.8c-.8-.65-1.56-1.36-2.26-2.13-.18 4.6 1.42 9.16 6.2 13.03a24.44 24.44 0 013.48 3.4c.15-5-2.04-9.95-7.42-14.3z" />
    </g>
    <path fill="#FDB797" fill-rule="nonzero" d="M111 218.04l-1.4 7.15H104l1.4-10z" />
    <path fill="#000" fill-rule="nonzero" d="M112 218.19l-.4 1-5.6-1.33.4-.67z" opacity=".1" />
    <path fill="#FDB797" fill-rule="nonzero" d="M72 218.04l1.4 7.15H79l-1.4-10z" />
    <path fill="#000" fill-rule="nonzero" d="M73 218.05l.4 1.14 5.6-1.43v-.57z" opacity=".1" />
    <path fill="#FDB797" fill-rule="nonzero" d="M124 20.28s-.14-6.8-4.65-10.56c-4.51-3.75-1.14 13.47-1.14 13.47l5.79-2.9z" />
    <path fill="#333" fill-rule="nonzero" d="M80.27 223.19h-6.94l-1.39 4.6s-7.1-.18-6.94 1.52c.16 1.7 4.01 4.6 13.88 1.53l2.77-3.06s1.4-1.53-1.38-4.6zM103.73 223.19h6.94l1.39 4.6s7.1-.18 6.94 1.52c-.16 1.7-4.01 4.6-13.88 1.53l-2.77-3.06s-1.4-1.53 1.38-4.6zM113.5 125.19h-40c-13.03 34.7-11.44 50.61-11.44 50.61l11.43 43.38 8.6-1.45-8.6-43.37c7.15-5.94 20.02-28.92 20.02-28.92s12.86 22.97 20 28.92l-8.6 43.38 8.6 1.45 11.43-43.38s1.6-15.92-11.44-50.62z" />
    <path fill="#000" fill-rule="nonzero" d="M72 125.19s23.82 9 42 0H72z" opacity=".1" />
    <path fill="#3AD29F" fill-rule="nonzero" d="M70.47 73.51L58.75 84.97l4.4 22.92-5.86 4.3L47.03 82.1s-3.1-5.57 1.46-8.6l17.6-17.19s7.54-4.94 12.73-2.4c5.2 2.52-8.45 19.41-8.45 19.41" />
    <path fill="#3AD29F" fill-rule="nonzero" d="M70 72.95l1.48 52.36s23.46 8.73 41.37 0L111.37 76 111 74.4l.27-.8 17.76-14.5c4.86-2.63 2.3-8.55 2.3-8.55L123.9 19.2l-6.3 3.8 2.22 23.57-12.64 10.33-.32-.02v.08L74.45 55.5" />
    <rect width="11" height="13" x="88" y="49.19" fill="#FDB797" fill-rule="nonzero" rx="5.5" />
    <path fill="#000" fill-rule="nonzero" d="M88 54.43c3.66 1.35 7.7.88 11-1.28a5.74 5.74 0 00-5.35-3.96A5.83 5.83 0 0088 54.43z" opacity=".1" />
    <ellipse cx="91" cy="40.69" fill="#FDB797" fill-rule="nonzero" rx="13" ry="12.5" />
    <path fill="#000" fill-rule="nonzero" d="M81.46 33.84c-.79.1-1.6.05-2.37-.13a5.26 5.26 0 01-2-1.27c-1.67-1.55-2.91-3.62-3.07-5.85a6.06 6.06 0 012.9-5.7c2.8-1.54 6.37-.32 9.07 1.38 2.32 1.47 5.09 3.36 7.58 2.2.82-.4 1.45-1.07 2.2-1.57 2.88-1.95 7.16-.99 9.51 1.54 2.35 2.54 3.01 6.2 2.6 9.58-.4 3.39-1.73 6.59-2.96 9.77a4.7 4.7 0 01-.95 1.72c-1.5 1.48-4.3.33-5.29-1.51-1.7-3.2 0-8.76-4.04-10.63-3.22-1.48-9.72.25-13.18.47z" opacity=".1" />
    <path fill="#333" fill-rule="nonzero" d="M81.46 33.84c-.79.1-1.6.05-2.37-.13a5.26 5.26 0 01-2-1.27c-1.67-1.55-2.91-3.62-3.07-5.85a6.06 6.06 0 012.9-5.7c2.8-1.54 6.37-.32 9.07 1.38 2.32 1.47 5.09 3.36 7.58 2.2.82-.4 1.45-1.07 2.2-1.57 2.88-1.95 7.16-.99 9.51 1.54 2.35 2.54 3.01 6.2 2.6 9.58-.4 3.39-1.75 6.59-2.97 9.77a4.7 4.7 0 01-.95 1.72c-1.5 1.48-4.3.33-5.28-1.51-1.71-3.2 0-8.76-4.05-10.63-3.2-1.48-9.71.25-13.17.47z" />
    <ellipse cx="99" cy="41.19" fill="#FDB797" fill-rule="nonzero" rx="1" ry="3" />
    <path fill="#000" fill-rule="nonzero" d="M72 72.19l4 1.66-4 4.34zM110.9 73.19l-1.9 2.63 1.26 2.37.74-2.63z" opacity=".1" />
    <path fill="#538DC3" fill-rule="nonzero" d="M94 61.09v2.1s-16.58-2.8-17-7l10.94.7 6.06 4.2z" />
    <path fill="#538DC3" fill-rule="nonzero" d="M93 61.09v2.1s16.58-2.8 17-7l-10.94.7-6.06 4.2z" />
    <path fill="#000" fill-rule="nonzero" d="M197 86.19l56 13.36-20.22 8.64z" opacity=".1" />
    <path fill="#538DC3" fill-rule="nonzero" d="M74 56.19s0-5 3.33-5c3.34 0 6.67 10 6.67 10l-10-5z" />
    <circle cx="3.5" cy="91.69" r="2.5" fill="#F55F44" fill-rule="nonzero" opacity=".5" />
    <circle cx="30.5" cy="141.69" r="2.5" fill="#F55F44" fill-rule="nonzero" opacity=".5" />
    <circle cx="260.5" cy="7.69" r="2.5" fill="#F55F44" fill-rule="nonzero" opacity=".5" />
    <path fill="#4D8AF0" fill-rule="nonzero" d="M156.6 7.73c-.64-.28-.97-1-.77-1.66l.03-.15a.69.69 0 00-1.24-.46.65.65 0 00-.08.14c-.28.64-.99.96-1.66.76a.69.69 0 00-.6 1.2v.01l.13.08c.64.28.96 1 .76 1.66a.69.69 0 001.21.6.65.65 0 00.08-.13c.28-.64.99-.97 1.66-.77l.15.03a.69.69 0 00.46-1.23.65.65 0 00-.13-.08zM262.59 138.73a1.37 1.37 0 01-.77-1.66l.03-.15a.69.69 0 00-1.23-.46.65.65 0 00-.08.14c-.28.64-1 .97-1.66.76a.69.69 0 00-.6 1.2v.01l.13.08c.64.28.97.99.77 1.66a.69.69 0 001.2.6.65.65 0 00.08-.13c.28-.64 1-.97 1.66-.77l.15.03a.69.69 0 00.45-1.24.65.65 0 00-.13-.07z" opacity=".5" />
    <circle cx="181.5" cy="198.69" r="2.5" fill="#47E6B1" fill-rule="nonzero" opacity=".5" />
    <circle cx="3.5" cy="183.69" r="2.5" fill="#47E6B1" fill-rule="nonzero" opacity=".5" />
    <circle cx="176.5" cy="28.69" r="2.5" fill="#47E6B1" fill-rule="nonzero" opacity=".5" />
    <g fill="#47E6B1" fill-rule="nonzero" opacity=".5">
      <path d="M2.43.19h1.04v5.89H2.43z" />
      <path d="M5.9 2.62v1.04H0V2.62z" />
    </g>
    <g fill="#47E6B1" fill-rule="nonzero" opacity=".5">
      <path d="M22.48 58.32h1v5.6h-1z" />
      <path d="M25.78 60.63v.99h-5.61v-1z" />
    </g>
    <g fill="#47E6B1" fill-rule="nonzero" opacity=".5">
      <path d="M219.45 32.2h1v5.89h-1z" />
      <path d="M222.75 34.63v1.04h-5.61v-1.04z" />
    </g>
  </g>
</svg>